…
print(suspicious_channels)
```

    # A tibble: 106 × 3
       src_ip          suspicious_domains total_queries
       <chr>                        <int>         <dbl>
     1 192.168.202.97                 281          6614
     2 192.168.202.71                  51          1203
     3 192.168.202.84                  48          1157
     4 10.10.117.210                   47         69031
     5 192.168.202.79                  44          1141
     6 192.168.202.100                 37           578
     7 192.168.202.103                 28          9988
     8 192.168.202.110                 23          2378
     9 192.168.202.106                 18          1967
    10 192.168.204.45                  16           363
    # ℹ 96 more rows
…
