…
``` r
if (nrow(open_ap) > 0) {
  print(open_ap)
  cat("Всего небезопасных точек доступа:", nrow(open_ap), "\n")
  cat("Процент от общего числа:",
      round(100 * nrow(open_ap) / nrow(wifi_ap), 1), "%\n")
} else {
  cat("Небезопасные точки доступа отсутствуют.\n")
}
```

    # A tibble: 23 × 5
       bssid             essid         privacy   pwr  chan
       <chr>             <chr>         <chr>   <dbl> <dbl>
     1 00:3E:1A:5D:14:45 MT_FREE       OPN       -57    11
     2 E8:28:C1:DC:B2:52 MIREA_HOTSPOT OPN       -63     6
     3 E8:28:C1:DC:B2:50 MIREA_GUESTS  OPN       -63     6
     4 E8:28:C1:DD:04:52 MIREA_HOTSPOT OPN       -67    11
     5 02:BC:15:7E:D5:DC MT_FREE       OPN       -67    11
     6 00:03:7A:1A:03:56 MT_FREE       OPN       -68    11
     7 02:67:F1:B0:6C:98 MT_FREE       OPN       -68    11
     8 00:53:7A:99:98:56 MT_FREE       OPN       -68    11
     9 E8:28:C1:DE:74:32 MIREA_HOTSPOT OPN       -69     6
    10 E8:28:C1:DC:C8:32 MIREA_HOTSPOT OPN       -69     1
    # ℹ 13 more rows
…
probe_stats
```

    # A tibble: 1,477 × 7

    Warning in as.POSIXlt.POSIXct(x, tz): unknown timezone '%Y-%m-%d %H:%M:%S'
    Warning in as.POSIXlt.POSIXct(x, tz): unknown timezone '%Y-%m-%d %H:%M:%S'
    Warning in as.POSIXlt.POSIXct(x, tz): unknown timezone '%Y-%m-%d %H:%M:%S'
    Warning in as.POSIXlt.POSIXct(x, tz): unknown timezone '%Y-%m-%d %H:%M:%S'

       mac       probe mean_pwr sd_pwr     n first               last               
       <chr>     <chr>    <dbl>  <dbl> <int> <dttm>              <dttm>             
     1 00:90:4C… Redmi      -65     NA     1 2023-07-28 09:16:59 2023-07-28 10:21:15
     2 00:95:69… nvri…      -55     NA     1 2023-07-28 09:13:11 2023-07-28 11:56:13
     3 00:95:69… nvri…      -33     NA     1 2023-07-28 09:13:15 2023-07-28 11:56:17
     4 00:95:69… nvri…      -69     NA     1 2023-07-28 09:13:11 2023-07-28 11:56:07
     5 00:F4:8D… Redm…      -73     NA     1 2023-07-28 10:45:04 2023-07-28 11:43:26
     6 02:00:00… xt3 …      -67     NA     1 2023-07-28 09:54:40 2023-07-28 11:55:36
     7 02:06:2B… Aven…      -65     NA     1 2023-07-28 09:55:12 2023-07-28 09:55:12
     8 02:1D:0F… iPho…      -61     NA     1 2023-07-28 09:57:08 2023-07-28 09:57:08
     9 02:32:DC… Timo…      -84     NA     1 2023-07-28 10:58:23 2023-07-28 10:58:24
    10 02:35:E9… iPho…      -88     NA     1 2023-07-28 10:00:55 2023-07-28 10:00:55
    # ℹ 1,467 more rows
…
